Intro to Data Visualization in R for Coral Reef Ecology
…
wide_metadata <- metadata %>%
  # keep only the the first two columns from the metadata object (drops the rest!)
  select(...1, ...2) %>%
  # convert from long to wide format so that values from column 1 become variables with values from column 2
  pivot_wider(names_from = ...1, values_from = ...2)

# Add the new metadata columns to tidy_fish
tidy_fish <- tidy_fish %>%
  bind_cols(wide_metadata) 

# Now, we have a dataset with the same number of observations as before, but with 4 new columns. 
tidy_fish

## # A tibble: 85 x 9
##    Family   Class   Transect  Count Density Date  Site  Depth `Data recorded by`
##    <fct>    <fct>   <fct>     <dbl>   <dbl> <chr> <chr> <chr> <chr>             
##  1 Snappers 0-20cm  Transect~    15    0.3  June~ Test~ 15 m  Noelle            
##  2 Snappers 0-20cm  Transect~     3    0.06 June~ Test~ 15 m  Noelle            
##  3 Snappers 0-20cm  Transect~     0    0    June~ Test~ 15 m  Noelle            
##  4 Snappers 0-20cm  Transect~     6    0.12 June~ Test~ 15 m  Noelle            
##  5 Snappers 0-20cm  Transect~     0    0    June~ Test~ 15 m  Noelle            
##  6 Snappers 20-40cm Transect~     0    0    June~ Test~ 15 m  Noelle            
##  7 Snappers 20-40cm Transect~    23    0.46 June~ Test~ 15 m  Noelle            
##  8 Snappers 20-40cm Transect~     2    0.04 June~ Test~ 15 m  Noelle            
##  9 Snappers 20-40cm Transect~     2    0.04 June~ Test~ 15 m  Noelle            
## 10 Snappers 20-40cm Transect~     1    0.02 June~ Test~ 15 m  Noelle            
## # i 75 more rows
…
combined_surveys <- bind_rows(tidy_fish, tidy_fish_copy)

Visualize data with ggplot2

ggplot2 is an amazing package for data visualization in R. You can easily customize and develop maps, networks, and simple graphs using a standard language.This package bases its visualizations on a series of elements joined together by a + sign. The elements are layered, so whatever comes first goes underneath.

For additional inspiration for making cool figures in R, check out the R graphics gallery.

Once again, lets look at our data and think about what we want to plot! This time, lets look at all of the data as a table.

tidy_fish

## # A tibble: 85 x 9
##    Family   Class   Transect  Count Density Date  Site  Depth `Data recorded by`
##    <fct>    <fct>   <fct>     <dbl>   <dbl> <chr> <chr> <chr> <chr>             
##  1 Snappers 0-20cm  Transect~    15    0.3  June~ Test~ 15 m  Noelle            
##  2 Snappers 0-20cm  Transect~     3    0.06 June~ Test~ 15 m  Noelle            
##  3 Snappers 0-20cm  Transect~     0    0    June~ Test~ 15 m  Noelle            
##  4 Snappers 0-20cm  Transect~     6    0.12 June~ Test~ 15 m  Noelle            
##  5 Snappers 0-20cm  Transect~     0    0    June~ Test~ 15 m  Noelle            
##  6 Snappers 20-40cm Transect~     0    0    June~ Test~ 15 m  Noelle            
##  7 Snappers 20-40cm Transect~    23    0.46 June~ Test~ 15 m  Noelle            
##  8 Snappers 20-40cm Transect~     2    0.04 June~ Test~ 15 m  Noelle            
##  9 Snappers 20-40cm Transect~     2    0.04 June~ Test~ 15 m  Noelle            
## 10 Snappers 20-40cm Transect~     1    0.02 June~ Test~ 15 m  Noelle            
## # i 75 more rows
…
